[
    {
        "name": "r1",
        "coords": {
            "lat": 12.923927,
            "lon": 77.612916
        }
    },
    {
        "name": "r2",
        "coords": {
            "lat": 12.804604,
            "lon": 77.605191
        }
    }
]